row_id,map_code,map_code_pnv,land_cover_class,land_cover_class_agg,human_impact,comment,pv_mapping,R,G,B,Color,EU CORINE (2018),USA-NLCD (2016),Global Cover map at 30 m (2010),Australia dynamic land-cover dataset v1 (2008),Land Cover map of Canada (2010)
1,0,,unknown,unknown,unknown,,0,0,0,0,,,,,,
2,111,111,"closed forest, evergreen needleleaf",forests,hybrid,"overpredicted in Ireland and mid-southern UK which should have 114 instead (based on palinological and extant vegetation studies), eg. https://www.npws.ie/sites/default/files/publications/pdf/Higgins_et_al_2004_Woodland_Interim_Report.pdf",1,,,,,,,,,
3,113,113,"closed forest, deciduous needleleaf",forests,hybrid,,1,,,,,,,,,
4,112,112,"closed forest, evergreen broadleaf",forests,hybrid,,1,,,,,,,,,
5,114,114,"closed forest, deciduous broadleaf",forests,hybrid,,1,,,,,,,,,
6,115,115,"closed forest, mixed",forests,hybrid,,1,,,,,,,,,
7,116,,"closed forest, unknown",forests,hybrid,exclude,0,,,,,,,,,
8,121,121,"open forest, evergreen needleleaf",forests,hybrid,,1,,,,,,,,,
9,123,123,"open forest, deciduous needleleaf",forests,hybrid,,1,,,,,,,,,
10,122,122,"open forest, evergreen broadleaf",forests,hybrid,,1,,,,,,,,,
11,124,124,"open forest, deciduous broadleaf",forests,hybrid,,1,,,,,,,,,
12,125,125,"open forest, mixed",forests,hybrid,,1,,,,,,,,,
13,126,,"open forest, unknown",forests,hybrid,exclude,0,,,,,,,,,
14,127,127,subtropical/tropical mangrove vegetation,forests,native,,1,,,,,,,,,
15,21,21,"sub-polar or polar barren-lichen-moss, grassland",shrubs,native,,1,,,,,,,70,,
16,20,20,shrubs,shrubs,hybrid,"seems too much in suthern africa and Peru, here more grassland",1,,,,,"323,324","51,52",40,"24,25",
17,30,30,herbaceous vegetation,herbaceous vegetation,hybrid,seems to little in the places listed just above,1,,,,,,,,,
18,90,90,herbaceous wetland,herbaceous wetland,native,"now appears overpredicted in Ireland and UK, but underpredicted in France, Central Europe",1,,,,,"322,411,412,421",95,60,11,
19,100,100,moss and lichen,moss and lichen,native,,1,,,,,,,,,
20,60,60,bare/sparse vegetation,bare/sparse vegetation,hybrid,overpredicted in iran/irak. Should be more open forest steppe /grassland,1,,,,,"332,333",,,,
21,40,,cropland,cropland,managed,,0,,,,,,,,,
22,50,,urban/built-up,urban/built-up,managed,,0,,,,,,,,,
23,70,,snow and ice,snow and ice,native,exclude,0,,,,,,,,,
24,80,,permanent water bodies,permanent water bodies,native,exclude,0,,,,,,,,,
25,200,,open sea,open sea,native,exclude,0,,,,,,,,,